module github.com/go-vgo/robotgo

go 1.17

require (
	github.com/kbinani/screenshot v0.0.0-20210720154843-7d3a670d8329
	github.com/lxn/win v0.0.0-20210218163916-a377121e959e
	github.com/otiai10/gosseract v2.2.1+incompatible
	// github.com/robotn/gohook v0.31.3
	github.com/robotn/xgb v0.0.0-20190912153532-2cb92d044934
	github.com/robotn/xgbutil v0.0.0-20190912154524-c861d6f87770
	github.com/vcaesar/gops v0.30.0
	github.com/vcaesar/imgo v0.30.1
	github.com/vcaesar/keycode v0.10.0
	github.com/vcaesar/tt v0.20.0
	golang.org/x/image v0.5.0 // indirect
)

require (
	github.com/gen2brain/shm v0.0.0-20200228170931-49f9650110c5 // indirect
	github.com/go-ole/go-ole v1.2.6 // indirect
	github.com/jezek/xgb v0.0.0-20210312150743-0e0f116e1240 // indirect
	github.com/lufia/plan9stats v0.0.0-20220913051719-115f729f3c8c // indirect
	github.com/otiai10/mint v1.3.0 // indirect
	github.com/power-devops/perfstat v0.0.0-20220216144756-c35f1ee13d7c // indirect
	github.com/shirou/gopsutil/v3 v3.22.10 // indirect
	github.com/tklauser/go-sysconf v0.3.11 // indirect
	github.com/tklauser/numcpus v0.6.0 // indirect
	github.com/yusufpapurcu/wmi v1.2.2 // indirect
	golang.org/x/sys v0.2.0 // indirect
)

// replace golang.org/x/sys => github.com/golang/sys v0.0.0-20190109145017-48ac38b7c8cb

// go 1.13
